<svg width="40" height="40" viewBox="0 0 40 40" fill="none" xmlns="http://www.w3.org/2000/svg">
<path d="M8.79942 17.0605C10.8442 13.9173 13.968 11.0971 14.4874 9.88477C17.0356 10.8405 18.8322 10.7807 20.9888 9.88477C33.3338 18.0974 40.2078 32.9354 19.7084 33.8201C1.57256 34.6028 5.52727 22.0902 8.79942 17.0605Z" fill="#FFE49F"/>
<path d="M12.6068 2.56237C10.8926 2.8467 13.0685 6.81794 14.1968 7.94634C14.8239 8.61992 16.6 9.00772 17.8697 9.00772C21.0128 9.00772 21.8451 7.26807 22.0042 5.5209C22.2308 3.03158 21.0728 3.90844 20.6791 4.60093C20.2854 5.29342 19.2578 5.76322 19.1623 4.87151C18.9977 3.3362 17.91 2.45621 17.4188 3.24804C16.6957 4.41362 17.0069 5.11279 15.9592 4.98375C14.7703 4.83733 14.4548 2.25586 12.6068 2.56237Z" fill="#FFE49F"/>
<path d="M16.4323 8.67801C15.7209 8.41825 15.3485 8.60473 14.329 6.73446C14.5525 8.00752 14.9218 8.46013 15.6664 9.17414C16.3572 9.14383 17.1437 8.93777 16.4323 8.67801Z" fill="#FAD36E"/>
<path d="M19.3786 7.38672C18.99 8.18836 18.8399 8.63715 17.6143 8.83348L18.4164 9.18171C19.2095 8.67254 19.3456 8.22113 19.3786 7.38672Z" fill="#FAD36E"/>
<mask id="mask0" mask-type="alpha" maskUnits="userSpaceOnUse" x="6" y="9" width="27" height="25">
<path d="M8.79942 17.0605C10.8442 13.9173 13.968 11.0971 14.4874 9.88477C17.0356 10.8405 18.8322 10.7807 20.9888 9.88477C32.6878 18.6972 40.2078 32.9354 19.7084 33.8201C1.57256 34.6028 5.52727 22.0902 8.79942 17.0605Z" fill="#FFE49F"/>
</mask>
<g mask="url(#mask0)">
<path d="M22.4439 11.4234C21.476 12.1269 15.9275 11.7651 14.9658 10.1146L20.2733 9.53809L22.1114 10.4199L22.4439 11.4234Z" fill="#FAD36E"/>
<path d="M15.0399 29.724C9.04907 26.8441 11.149 15.6278 13.1019 10.7598L2.7058 16.1018L2.00098 25.0606L4.33564 34.3058L22.9689 36.0648L32.3515 30.7059C29.0771 31.5786 21.0307 32.604 15.0399 29.724Z" fill="#FFD15A"/>
</g>
<path fill-rule="evenodd" clip-rule="evenodd" d="M21.5605 15.869C21.7124 15.9016 21.8834 15.9684 22.0423 16.0423C22.2503 16.1389 22.3406 16.3804 22.2687 16.5982C22.1734 16.887 21.8269 17.0355 21.54 16.9346C21.4473 16.902 21.3599 16.8747 21.2944 16.8606C21.0736 16.8132 20.7988 16.7746 20.4871 16.7493C19.8629 16.6988 19.1266 16.7049 18.4394 16.786C17.74 16.8686 17.1504 17.0221 16.7774 17.2311C16.5956 17.3329 16.4935 17.4323 16.4416 17.5179C16.3954 17.5943 16.3724 17.6855 16.4014 17.817C16.4426 18.004 16.6677 18.2249 17.3916 18.4337C17.9756 18.6022 18.7025 18.7125 19.4947 18.8327C19.633 18.8537 19.7733 18.875 19.9151 18.8969C20.831 19.0387 21.8189 19.2093 22.5802 19.5286C23.3597 19.8556 24.2908 20.3096 24.2908 21.2304C24.2908 22.5319 23.0389 23.5871 21.5605 23.9024C20.2228 24.1877 18.3189 24.1939 16.4116 23.661C16.0574 23.562 15.8809 23.1741 16.017 22.8325C16.1445 22.5122 16.5011 22.3508 16.8316 22.4485C18.5513 22.9568 20.0649 23.0197 21.1501 22.7882C22.3674 22.5287 22.8983 21.9563 22.8983 21.3249C22.8983 20.9672 22.6784 20.6962 22.0957 20.4518C21.4947 20.1996 20.6572 20.0467 19.7206 19.9017C19.589 19.8814 19.4554 19.8612 19.3206 19.8408C18.5352 19.722 17.7112 19.5974 17.0414 19.4042C16.2946 19.1888 15.4579 18.8111 15.2823 18.0141C15.2044 17.6605 15.2605 17.3265 15.4387 17.0323C15.6113 16.7475 15.8789 16.5311 16.1718 16.367C16.748 16.0442 17.5267 15.8652 18.2901 15.7751C19.0658 15.6835 19.8869 15.6768 20.59 15.7338C20.9419 15.7623 21.2733 15.8074 21.5605 15.869Z" fill="#A9723F"/>
<path d="M20.7783 6.99238C20.3958 8.18334 19.9803 8.66052 18.7538 8.91828C19.0041 9.0473 19.3437 8.99959 19.9561 8.72476C20.5685 8.44992 20.7594 7.45532 20.7783 6.99238Z" fill="#FAD36E"/>
<mask id="mask1" mask-type="alpha" maskUnits="userSpaceOnUse" x="11" y="2" width="12" height="8">
<path d="M12.6068 2.56237C10.8926 2.8467 13.0685 6.81794 14.1968 7.94634C14.8239 8.61992 16.6 9.00772 17.8697 9.00772C21.0128 9.00772 21.8451 7.26807 22.0042 5.5209C22.2308 3.03158 21.0728 3.90844 20.6791 4.60093C20.2854 5.29342 19.4772 5.72693 19.1623 4.87151C18.8473 4.01609 18.1685 2.03946 17.4188 3.24804C16.6957 4.41362 17.0069 5.11279 15.9592 4.98375C14.7703 4.83733 14.4548 2.25586 12.6068 2.56237Z" fill="#F9C53F"/>
</mask>
<g mask="url(#mask1)">
<path d="M21.5079 6.68326C21.9082 4.57375 21.1663 4.13104 20.6628 4.12485L21.9632 3.13086L22.7734 3.26095L23.5336 4.93296L22.3933 8.32343C21.4897 8.54946 17.5374 9.40234 17.9455 9.27601C18.4556 9.11809 21.0961 8.85366 21.5079 6.68326Z" fill="#FAD36E"/>
<path d="M15.1077 5.18083C14.1965 4.67635 14.3516 3.59986 14.4538 3.13874L15.6586 2.54883C16.0675 2.74547 16.7433 3.20491 16.8309 3.80706C16.9405 4.55975 16.2468 5.81143 15.1077 5.18083Z" fill="#FAD36E"/>
</g>
<path d="M20.1097 7.60125C19.6227 8.65283 19.4447 8.81834 18.5394 8.90045C18.5427 9.05691 18.6868 9.34455 19.2361 9.24341C19.7854 9.14226 20.0474 8.10649 20.1097 7.60125Z" fill="#FAD36E"/>
<path d="M16.2506 8.78477C15.8057 8.51819 15.7185 7.79635 15.7305 7.46875C15.3659 8.14142 15.7445 8.76955 15.8127 8.95572C16.2552 9.03902 16.6956 9.05136 16.2506 8.78477Z" fill="#FAD36E"/>
<path d="M13.8959 9.86838C13.1315 9.04636 13.6833 8.40261 14.2129 7.96094C14.8199 8.64819 20.0327 9.04251 20.9716 7.98629C22.0784 8.46123 21.8724 9.86838 21.0293 10.2899C19.8015 10.9038 14.8815 10.9283 13.8959 9.86838Z" fill="#CC3D00"/>
<mask id="mask2" mask-type="alpha" maskUnits="userSpaceOnUse" x="13" y="7" width="9" height="4">
<path d="M13.8959 9.86838C13.1315 9.04636 13.6833 8.40261 14.2129 7.96094C14.8199 8.64819 20.0327 9.04251 20.9716 7.98629C22.0784 8.46123 21.8724 9.86838 21.0293 10.2899C19.8015 10.9038 14.8815 10.9283 13.8959 9.86838Z" fill="#FC1E00"/>
</mask>
<g mask="url(#mask2)">
<path d="M21.8878 8.79113C21.0018 10.7826 16.8102 10.7041 14.8252 10.4159L20.9568 11.9513L23.7819 11.0569C23.5197 9.47189 22.7738 6.79966 21.8878 8.79113Z" fill="#901100"/>
</g>
<path d="M38.6095 32.3977C37.9203 33.4095 36.8892 34.142 35.7034 34.4622C35.6745 34.4737 35.6436 34.4814 35.6128 34.491C34.5394 34.8015 33.3658 34.8743 32.2114 34.9012C31.1127 34.9243 30.0147 34.8325 28.9353 34.6271C28.7908 34.6002 28.6501 34.5676 28.5113 34.5351C28.1335 34.4482 27.7645 34.3269 27.409 34.1728C27.3281 34.1363 27.2471 34.098 27.1681 34.0578L27.0409 33.9945C26.9099 33.9255 26.7789 33.8507 26.6555 33.7702C25.6946 33.2137 24.93 32.3755 24.4663 31.3703C23.919 30.086 23.6107 28.5257 24.1406 27.1532C24.3694 26.5993 24.7955 26.1489 25.3374 25.8881C25.4769 25.8079 25.6333 25.7613 25.7941 25.752C25.7652 25.773 25.3913 25.9571 25.2025 26.0567C25.1671 26.0712 25.1329 26.0886 25.1003 26.1085C25.0663 26.1385 25.0341 26.1705 25.004 26.2043C24.9371 26.2753 24.8789 26.3537 24.8305 26.4382C24.8305 26.4535 24.8132 26.4689 24.8055 26.4842C24.7842 26.5212 24.7655 26.5596 24.7496 26.5992C24.7424 26.6142 24.7359 26.6296 24.7303 26.6452C24.7303 26.6644 24.7168 26.6836 24.711 26.7027C24.7054 26.717 24.7009 26.7318 24.6976 26.7468C24.686 26.7832 24.6764 26.8177 24.6687 26.8542C24.6677 26.8618 24.6677 26.8695 24.6687 26.8772C24.6687 26.9174 24.6532 26.9577 24.6475 26.9979V27.0382C24.6475 27.0823 24.6475 27.1263 24.6475 27.1724C24.6413 27.4521 24.6803 27.7311 24.7631 27.9985C24.7824 28.0599 24.8016 28.1212 24.8228 28.1806C24.844 28.2401 24.8479 28.2477 24.8614 28.2803C24.8749 28.3129 24.8864 28.3436 24.8999 28.3742C24.9134 28.4049 24.925 28.4337 24.9384 28.4624C24.9654 28.5212 24.9943 28.5806 25.0252 28.6407C25.0599 28.7078 25.0984 28.7749 25.1369 28.8419C25.1659 28.8899 25.1948 28.9359 25.2256 28.9819V28.9915C25.2936 29.1002 25.3676 29.2052 25.4472 29.3058C25.4858 29.3576 25.5301 29.4093 25.5744 29.4592C25.6187 29.509 25.6611 29.5569 25.7074 29.6049C25.7536 29.6528 25.7671 29.6662 25.7999 29.6969C25.8326 29.7275 25.8693 29.7659 25.9039 29.7985C25.9386 29.8311 25.9907 29.879 26.0369 29.9173C26.1024 29.9748 26.1699 30.0304 26.2296 30.0841L26.245 30.0956C26.3086 30.1435 26.3722 30.1914 26.4378 30.2355C26.5033 30.2796 26.5649 30.3218 26.6305 30.362C26.6831 30.3978 26.7378 30.4305 26.7943 30.4598H26.8078L26.9118 30.5192L26.96 30.5441L27.0197 30.5729L27.1527 30.6381C27.2125 30.6668 27.2722 30.6936 27.3339 30.7186C27.4302 30.7588 27.5266 30.7972 27.6268 30.8336L27.9139 30.939L28.1317 31.0099L28.2994 31.0617L28.5229 31.1269L28.7542 31.1863C28.8338 31.2067 28.9128 31.2259 28.9912 31.2438L29.2128 31.2936C29.3015 31.3109 29.3901 31.33 29.4788 31.3454L29.7312 31.3895C30.1843 31.466 30.641 31.5198 31.0995 31.5505L31.323 31.5658L31.7084 31.5831H31.9358C32.1671 31.5831 32.3984 31.5831 32.6277 31.5831H32.9784L33.2463 31.5697H33.3793H33.4332C33.5199 31.5697 33.6067 31.5582 33.6934 31.5505C33.8148 31.5505 33.9362 31.5294 34.0557 31.5141C34.1752 31.4987 34.2889 31.4872 34.4045 31.47H34.443C34.5529 31.4546 34.6608 31.4374 34.7668 31.4163H34.788L35.106 31.3531L35.1696 31.3396C35.2717 31.3185 35.3623 31.2936 35.4721 31.2668C35.4913 31.2637 35.51 31.2586 35.528 31.2515C35.6051 31.2323 35.6822 31.2112 35.7573 31.1882L35.9134 31.1403C35.9944 31.1154 36.0734 31.0885 36.1524 31.0598C36.2314 31.031 36.3181 31.0003 36.401 30.9658C36.4839 30.9313 36.5436 30.9083 36.6149 30.8777C36.8128 30.7919 37.0059 30.6952 37.1931 30.5882L37.3646 30.4866C37.4262 30.4502 37.4879 30.4099 37.5573 30.3697C37.6267 30.3294 37.6459 30.3122 37.6883 30.2815C37.8136 30.1914 37.935 30.0898 38.0526 29.9978C38.4202 29.6856 38.7442 29.3258 39.0161 28.9282C39.045 28.886 39.0739 28.8419 39.1009 28.7979C39.1279 28.7538 39.1375 28.7384 39.1549 28.7097C39.1628 28.6984 39.1693 28.6861 39.1741 28.6733V28.6637L39.2377 28.5448C39.2449 28.5318 39.2514 28.5184 39.257 28.5046C39.2705 28.4777 39.284 28.4509 39.2955 28.4222L39.3071 28.3972C39.3225 28.3646 39.336 28.3301 39.3476 28.2976C39.3671 28.25 39.3839 28.2014 39.3977 28.1519C39.4229 28.0756 39.4416 27.9974 39.4536 27.918C39.4631 27.8758 39.4689 27.8328 39.4709 27.7896C39.4767 27.7303 39.4767 27.6706 39.4709 27.6113C39.4738 27.5769 39.4738 27.5423 39.4709 27.5078C39.4686 27.4723 39.4635 27.4371 39.4555 27.4024C39.4518 27.3783 39.446 27.3546 39.4382 27.3315C39.4242 27.2751 39.4055 27.2199 39.3823 27.1666C39.5392 27.4336 39.642 27.7286 39.6848 28.0349C39.9411 29.4899 39.4401 31.1709 38.6095 32.3977Z" fill="#FFCD1A"/>
<path d="M38.6091 32.3986C37.9024 33.4344 36.8405 34.1785 35.6221 34.4919C36.1394 33.3339 36.4835 32.1069 36.6434 30.8498C37.1567 30.629 37.6346 30.3345 38.0618 29.9757C38.4295 29.6634 38.7535 29.3037 39.0254 28.9061C39.38 28.3885 39.6478 27.7176 39.3954 27.1426C39.5523 27.4096 39.6551 27.7046 39.6979 28.0109C39.9408 29.4907 39.4397 31.1718 38.6091 32.3986Z" fill="#FFBC3C"/>
<path d="M39.4768 27.5882C39.4732 27.9597 39.3686 28.3233 39.1742 28.6405C39.1242 28.7314 39.0695 28.8197 39.0104 28.9051C38.7386 29.3027 38.4145 29.6624 38.0469 29.9747C36.5726 31.2283 34.4932 31.5619 32.6124 31.5925C30.8529 31.6194 28.974 31.4008 27.3378 30.7261C26.348 30.3167 25.5304 29.58 25.0233 28.6405C24.9158 28.4352 24.828 28.2202 24.7613 27.9984C24.6759 27.7314 24.6342 27.4524 24.6379 27.1722C24.6373 26.9728 24.678 26.7753 24.7576 26.5923C24.8372 26.4092 24.9539 26.2445 25.1004 26.1084C25.1737 26.0428 25.253 25.9844 25.3375 25.9339C25.4223 25.8882 25.5106 25.8491 25.6015 25.817C26.133 25.6323 26.7061 25.6004 27.255 25.725C28.0933 25.8898 28.8603 26.2751 29.7024 26.44C30.4663 26.5873 31.2386 26.6872 32.015 26.739C33.0575 26.8425 34.1078 26.8425 35.1504 26.739C36.1833 26.6087 37.1604 26.093 38.2338 26.3173C38.7175 26.4189 39.1974 26.7007 39.3901 27.1435C39.4479 27.2847 39.4773 27.4357 39.4768 27.5882Z" fill="#F5B100"/>
<path d="M35.8864 27.0156C35.8864 27.0156 37.0003 27.5754 36.214 28.7772C35.4278 29.9791 32.6315 30.8187 29.8545 30.0347C27.0775 29.2507 27.2182 28.1772 27.4032 27.9261C27.5882 27.675 35.8864 27.0156 35.8864 27.0156Z" fill="#FFA800"/>
<path d="M36.2143 28.0695C36.2142 28.2376 36.1509 28.3996 36.037 28.5238C35.112 29.5321 33.5992 30.0343 31.8879 30.0343C30.1766 30.0343 28.685 29.5378 27.7523 28.5353C27.6316 28.4103 27.5628 28.2447 27.5596 28.0714C27.5596 28.0216 27.5596 27.9718 27.5596 27.9238C27.6482 25.7424 29.5522 24 31.8879 24C32.2371 23.9993 32.5851 24.0398 32.9247 24.1208C34.8171 24.5578 36.2143 26.1603 36.2143 28.0695Z" fill="#FFC700"/>
<path d="M36.2143 28.0698C36.2142 28.238 36.1509 28.4 36.037 28.5241C35.112 29.5324 33.5992 30.0346 31.8879 30.0346C30.1766 30.0346 28.685 29.5382 27.7523 28.5356C27.6316 28.4107 27.5628 28.245 27.5596 28.0718C27.5596 28.0219 27.5596 27.9721 27.5596 27.9242C28.8507 28.5356 31.9361 29.7989 34.1214 29.0551C36.3588 28.296 34.027 25.3421 32.9247 24.1211C34.8171 24.5581 36.2143 26.1606 36.2143 28.0698Z" fill="#FFDB1D"/>
<path d="M30.9353 24.6248C31.157 24.8472 31.658 26.5225 30.9353 27.2452C30.2127 27.9678 28.5226 27.4675 28.299 27.2452C28.0755 27.0228 28.4012 26.12 29.1277 25.3954C29.8542 24.6708 30.7118 24.4024 30.9353 24.6248Z" fill="#FFE600"/>
<path fill-rule="evenodd" clip-rule="evenodd" d="M20.1522 19.7057C19.9459 18.0364 19.6667 16.5023 19.3397 15.494C19.2372 15.1782 19.3828 14.8222 19.6917 14.7006C19.9798 14.5871 20.3067 14.7193 20.408 15.0118C20.802 16.1496 21.105 17.8498 21.3188 19.5802C21.5396 21.3672 21.6722 23.2497 21.7015 24.7081C21.708 25.0323 21.4448 25.2951 21.1205 25.2951C20.7962 25.2951 20.5337 25.0323 20.527 24.708C20.4977 23.2934 20.3684 21.4553 20.1522 19.7057Z" fill="#A9723F"/>
<path fill-rule="evenodd" clip-rule="evenodd" d="M17.5682 19.7057C17.3619 18.0364 17.0827 16.5023 16.7557 15.494C16.6533 15.1782 16.7988 14.8222 17.1077 14.7006C17.3958 14.5871 17.7227 14.7193 17.824 15.0118C18.218 16.1496 18.521 17.8498 18.7348 19.5802C18.9556 21.3672 19.0882 23.2497 19.1175 24.7081C19.124 25.0323 18.8608 25.2951 18.5365 25.2951C18.2122 25.2951 17.9497 25.0323 17.943 24.708C17.9137 23.2934 17.7844 21.4553 17.5682 19.7057Z" fill="#A9723F"/>
<path d="M13.5433 2.77615C13.5433 2.84811 13.2504 2.88877 12.9146 2.88877C12.5788 2.88877 12.3428 2.84811 12.3428 2.77615C12.3428 2.7042 12.5788 2.60742 12.9146 2.60742C13.2504 2.60742 13.5433 2.7042 13.5433 2.77615Z" fill="#FAD36E"/>
<path d="M18.2295 3.15913C18.2295 3.19243 18.0628 3.12669 17.9218 3.12669C17.7807 3.12669 17.6465 3.15999 17.6465 3.12669C17.6465 3.09339 17.7807 3.0166 17.9218 3.0166C18.0628 3.0166 18.2295 3.12584 18.2295 3.15913Z" fill="#FAD36E"/>
<g filter="url(#filter0_ii)">
<path d="M25.7322 17.6119C27.3737 16.8147 28.2981 15.8753 29.1402 13.8457C29.2509 13.5789 29.6572 13.5866 29.765 13.8545C30.7074 16.1977 32.0864 16.8841 33.3822 17.6111C33.6122 17.7401 33.5637 18.0786 33.3136 18.1623C30.9766 18.9445 30.5195 20.206 29.7117 22.0457C29.612 22.2727 29.3004 22.2822 29.1894 22.0606C28.5401 20.7647 27.7411 19.1198 25.7568 18.2536C25.4961 18.1398 25.4763 17.7362 25.7322 17.6119Z" fill="#FFC700"/>
</g>
<g filter="url(#filter1_ii)">
<path d="M6.90695 10.0416C7.59564 9.62764 8.04593 9.12249 8.44092 8.2271C8.56069 7.95561 8.99977 7.96225 9.12344 8.23199C9.59899 9.26928 10.2209 9.68816 10.8288 10.0613C11.0458 10.1945 11.0002 10.5145 10.7663 10.6153C9.71827 11.0671 9.41437 11.7445 9.03675 12.687C8.94095 12.9261 8.61925 12.9342 8.51034 12.7007C8.18772 12.0092 7.76669 11.2221 6.92645 10.7215C6.68937 10.5802 6.67042 10.1838 6.90695 10.0416Z" fill="#FFC700"/>
</g>
<defs>
<filter id="filter0_ii" x="25.5508" y="13.6494" width="7.98019" height="8.57198" filterUnits="userSpaceOnUse" color-interpolation-filters="sRGB">
<feFlood flood-opacity="0" result="BackgroundImageFix"/>
<feBlend mode="normal" in="SourceGraphic" in2="BackgroundImageFix" result="shape"/>
<feColorMatrix in="SourceAlpha" type="matrix" values="0 0 0 0 0 0 0 0 0 0 0 0 0 0 0 0 0 0 127 0" result="hardAlpha"/>
<feOffset dx="-0.3"/>
<feComposite in2="hardAlpha" operator="arithmetic" k2="-1" k3="1"/>
<feColorMatrix type="matrix" values="0 0 0 0 0.63776 0 0 0 0 0.497453 0 0 0 0 0 0 0 0 0.25 0"/>
<feBlend mode="normal" in2="shape" result="effect1_innerShadow"/>
<feColorMatrix in="SourceAlpha" type="matrix" values="0 0 0 0 0 0 0 0 0 0 0 0 0 0 0 0 0 0 127 0" result="hardAlpha"/>
<feOffset dx="0.3"/>
<feComposite in2="hardAlpha" operator="arithmetic" k2="-1" k3="1"/>
<feColorMatrix type="matrix" values="0 0 0 0 1 0 0 0 0 1 0 0 0 0 1 0 0 0 0.5 0"/>
<feBlend mode="normal" in2="effect1_innerShadow" result="effect2_innerShadow"/>
</filter>
<filter id="filter1_ii" x="6.73926" y="8.02637" width="4.23022" height="4.84459" filterUnits="userSpaceOnUse" color-interpolation-filters="sRGB">
<feFlood flood-opacity="0" result="BackgroundImageFix"/>
<feBlend mode="normal" in="SourceGraphic" in2="BackgroundImageFix" result="shape"/>
<feColorMatrix in="SourceAlpha" type="matrix" values="0 0 0 0 0 0 0 0 0 0 0 0 0 0 0 0 0 0 127 0" result="hardAlpha"/>
<feOffset dx="-0.3"/>
<feComposite in2="hardAlpha" operator="arithmetic" k2="-1" k3="1"/>
<feColorMatrix type="matrix" values="0 0 0 0 0.63776 0 0 0 0 0.497453 0 0 0 0 0 0 0 0 0.25 0"/>
<feBlend mode="normal" in2="shape" result="effect1_innerShadow"/>
<feColorMatrix in="SourceAlpha" type="matrix" values="0 0 0 0 0 0 0 0 0 0 0 0 0 0 0 0 0 0 127 0" result="hardAlpha"/>
<feOffset dx="0.3"/>
<feComposite in2="hardAlpha" operator="arithmetic" k2="-1" k3="1"/>
<feColorMatrix type="matrix" values="0 0 0 0 1 0 0 0 0 1 0 0 0 0 1 0 0 0 0.5 0"/>
<feBlend mode="normal" in2="effect1_innerShadow" result="effect2_innerShadow"/>
</filter>
</defs>
</svg>
